{"current_page":2,"data":[{"id":14,"section_id":14,"name":"مدرسة الأستاذة نور التعليمية  مرحلة الأساس (بنين - بنات )*","activety":"مؤسسة تعليمية  ( أساس )","address":"الخرطوم -جبرة - الشهيد طه الماحي - بالقرب من محطة ماثيو - تقاطع شرق ","Tel":"127684233","Department":"private_boys_elementary_schools","Area_code":"kh","Section_code":"3","placeholder1":"0","placeholder2":"0","created_at":"-0001-11-30 00:00:00","updated_at":"-0001-11-30 00:00:00"},{"id":15,"section_id":15,"name":"مدارس كامبردج العالمية  أساس بنين وبنات *","activety":"مؤسسة تعليمية ","address":"ام درمان- الملازمين - شارع البحر- جوار التلفزيون ","Tel":"918724504","Department":"private_boys_elementary_schools","Area_code":"kh","Section_code":"3","placeholder1":"0","placeholder2":"0","created_at":"-0001-11-30 00:00:00","updated_at":"-0001-11-30 00:00:00"},{"id":16,"section_id":16,"name":"مدارس وستمنستر الدولية ورياضها*","activety":"أكاديمي مرحلة الأساس خاص","address":"ام درمان - الملازمين - مربع (3) - شرق مستشفي المناطق الحارة - شمال الهيئة القومية للأذاعة ","Tel":"0912239319ـــ 0911011440","Department":"private_boys_elementary_schools","Area_code":"kh","Section_code":"3","placeholder1":"0","placeholder2":"0","created_at":"-0001-11-30 00:00:00","updated_at":"-0001-11-30 00:00:00"}],"first_page_url":"http:\/\/127.0.0.1:8001\/api\/education\/private_boys_elementary_schools\/where\/kh?page=1","from":4,"last_page":4,"last_page_url":"http:\/\/127.0.0.1:8001\/api\/education\/private_boys_elementary_schools\/where\/kh?page=4","next_page_url":"http:\/\/127.0.0.1:8001\/api\/education\/private_boys_elementary_schools\/where\/kh?page=3","path":"http:\/\/127.0.0.1:8001\/api\/education\/private_boys_elementary_schools\/where\/kh","per_page":3,"prev_page_url":"http:\/\/127.0.0.1:8001\/api\/education\/private_boys_elementary_schools\/where\/kh?page=1","to":6,"total":10}
